; Engine configuration file.
; It's best edited using the editor UI and not directly,
; since the parameters that go here are not all obvious.
;
; Format:
;   [section] ; section goes between []
;   param=value ; assign values to parameters

config_version=4

_global_script_classes=[ {
"base": "KinematicBody2D",
"class": "Enemy",
"language": "GDScript",
"path": "res://src/enemies/enemy.gd"
}, {
"base": "Reference",
"class": "GSAIAgentLocation",
"language": "GDScript",
"path": "res://addons/godot-steering-ai-framework/GSAIAgentLocation.gd"
}, {
"base": "GSAISteeringBehavior",
"class": "GSAIArrive",
"language": "GDScript",
"path": "res://addons/godot-steering-ai-framework/Behaviors/GSAIArrive.gd"
}, {
"base": "GSAIGroupBehavior",
"class": "GSAIAvoidCollisions",
"language": "GDScript",
"path": "res://addons/godot-steering-ai-framework/Behaviors/GSAIAvoidCollisions.gd"
}, {
"base": "GSAISteeringBehavior",
"class": "GSAIBlend",
"language": "GDScript",
"path": "res://addons/godot-steering-ai-framework/Behaviors/GSAIBlend.gd"
}, {
"base": "GSAIGroupBehavior",
"class": "GSAICohesion",
"language": "GDScript",
"path": "res://addons/godot-steering-ai-framework/Behaviors/GSAICohesion.gd"
}, {
"base": "GSAIPursue",
"class": "GSAIEvade",
"language": "GDScript",
"path": "res://addons/godot-steering-ai-framework/Behaviors/GSAIEvade.gd"
}, {
"base": "GSAIMatchOrientation",
"class": "GSAIFace",
"language": "GDScript",
"path": "res://addons/godot-steering-ai-framework/Behaviors/GSAIFace.gd"
}, {
"base": "GSAISeek",
"class": "GSAIFlee",
"language": "GDScript",
"path": "res://addons/godot-steering-ai-framework/Behaviors/GSAIFlee.gd"
}, {
"base": "GSAIArrive",
"class": "GSAIFollowPath",
"language": "GDScript",
"path": "res://addons/godot-steering-ai-framework/Behaviors/GSAIFollowPath.gd"
}, {
"base": "GSAISteeringBehavior",
"class": "GSAIGroupBehavior",
"language": "GDScript",
"path": "res://addons/godot-steering-ai-framework/GSAIGroupBehavior.gd"
}, {
"base": "GSAIProximity",
"class": "GSAIInfiniteProximity",
"language": "GDScript",
"path": "res://addons/godot-steering-ai-framework/Proximities/GSAIInfiniteProximity.gd"
}, {
"base": "GSAISpecializedAgent",
"class": "GSAIKinematicBody2DAgent",
"language": "GDScript",
"path": "res://addons/godot-steering-ai-framework/Agents/GSAIKinematicBody2DAgent.gd"
}, {
"base": "GSAISpecializedAgent",
"class": "GSAIKinematicBody3DAgent",
"language": "GDScript",
"path": "res://addons/godot-steering-ai-framework/Agents/GSAIKinematicBody3DAgent.gd"
}, {
"base": "GSAIMatchOrientation",
"class": "GSAILookWhereYouGo",
"language": "GDScript",
"path": "res://addons/godot-steering-ai-framework/Behaviors/GSAILookWhereYouGo.gd"
}, {
"base": "GSAISteeringBehavior",
"class": "GSAIMatchOrientation",
"language": "GDScript",
"path": "res://addons/godot-steering-ai-framework/Behaviors/GSAIMatchOrientation.gd"
}, {
"base": "Reference",
"class": "GSAIPath",
"language": "GDScript",
"path": "res://addons/godot-steering-ai-framework/GSAIPath.gd"
}, {
"base": "GSAISteeringBehavior",
"class": "GSAIPriority",
"language": "GDScript",
"path": "res://addons/godot-steering-ai-framework/Behaviors/GSAIPriority.gd"
}, {
"base": "Reference",
"class": "GSAIProximity",
"language": "GDScript",
"path": "res://addons/godot-steering-ai-framework/Proximities/GSAIProximity.gd"
}, {
"base": "GSAISteeringBehavior",
"class": "GSAIPursue",
"language": "GDScript",
"path": "res://addons/godot-steering-ai-framework/Behaviors/GSAIPursue.gd"
}, {
"base": "GSAIProximity",
"class": "GSAIRadiusProximity",
"language": "GDScript",
"path": "res://addons/godot-steering-ai-framework/Proximities/GSAIRadiusProximity.gd"
}, {
"base": "GSAISpecializedAgent",
"class": "GSAIRigidBody2DAgent",
"language": "GDScript",
"path": "res://addons/godot-steering-ai-framework/Agents/GSAIRigidBody2DAgent.gd"
}, {
"base": "GSAISpecializedAgent",
"class": "GSAIRigidBody3DAgent",
"language": "GDScript",
"path": "res://addons/godot-steering-ai-framework/Agents/GSAIRigidBody3DAgent.gd"
}, {
"base": "GSAISteeringBehavior",
"class": "GSAISeek",
"language": "GDScript",
"path": "res://addons/godot-steering-ai-framework/Behaviors/GSAISeek.gd"
}, {
"base": "GSAIGroupBehavior",
"class": "GSAISeparation",
"language": "GDScript",
"path": "res://addons/godot-steering-ai-framework/Behaviors/GSAISeparation.gd"
}, {
"base": "GSAISteeringAgent",
"class": "GSAISpecializedAgent",
"language": "GDScript",
"path": "res://addons/godot-steering-ai-framework/Agents/GSAISpecializedAgent.gd"
}, {
"base": "GSAIAgentLocation",
"class": "GSAISteeringAgent",
"language": "GDScript",
"path": "res://addons/godot-steering-ai-framework/GSAISteeringAgent.gd"
}, {
"base": "Reference",
"class": "GSAISteeringBehavior",
"language": "GDScript",
"path": "res://addons/godot-steering-ai-framework/GSAISteeringBehavior.gd"
}, {
"base": "Reference",
"class": "GSAITargetAcceleration",
"language": "GDScript",
"path": "res://addons/godot-steering-ai-framework/GSAITargetAcceleration.gd"
}, {
"base": "Reference",
"class": "GSAIUtils",
"language": "GDScript",
"path": "res://addons/godot-steering-ai-framework/GSAIUtils.gd"
}, {
"base": "KinematicBody2D",
"class": "Player",
"language": "GDScript",
"path": "res://src/player/player.gd"
} ]
_global_script_class_icons={
"Enemy": "",
"GSAIAgentLocation": "",
"GSAIArrive": "",
"GSAIAvoidCollisions": "",
"GSAIBlend": "",
"GSAICohesion": "",
"GSAIEvade": "",
"GSAIFace": "",
"GSAIFlee": "",
"GSAIFollowPath": "",
"GSAIGroupBehavior": "",
"GSAIInfiniteProximity": "",
"GSAIKinematicBody2DAgent": "",
"GSAIKinematicBody3DAgent": "",
"GSAILookWhereYouGo": "",
"GSAIMatchOrientation": "",
"GSAIPath": "",
"GSAIPriority": "",
"GSAIProximity": "",
"GSAIPursue": "",
"GSAIRadiusProximity": "",
"GSAIRigidBody2DAgent": "",
"GSAIRigidBody3DAgent": "",
"GSAISeek": "",
"GSAISeparation": "",
"GSAISpecializedAgent": "",
"GSAISteeringAgent": "",
"GSAISteeringBehavior": "",
"GSAITargetAcceleration": "",
"GSAIUtils": "",
"Player": ""
}

[application]

config/name="ld47"
run/main_scene="res://src/ui/main_menu.tscn"
config/icon="res://icon.png"

[autoload]

GlobalRefs="*res://src/global_refs.gd"
ExplosionManager="*res://src/explosions/explosion_manager.gd"
GlobalEffects="*res://src/global_effects.gd"
Soundboard="*res://src/sounds/soundboard.tscn"
Transition="*res://src/Transition.tscn"

[display]

window/size/height=576
window/dpi/allow_hidpi=true
window/stretch/mode="viewport"
window/stretch/aspect="keep_height"

[input]

move_left={
"deadzone": 0.5,
"events": [ Object(InputEventKey,"resource_local_to_scene":false,"resource_name":"","device":0,"alt":false,"shift":false,"control":false,"meta":false,"command":false,"pressed":false,"scancode":65,"unicode":0,"echo":false,"script":null)
, Object(InputEventKey,"resource_local_to_scene":false,"resource_name":"","device":0,"alt":false,"shift":false,"control":false,"meta":false,"command":false,"pressed":false,"scancode":16777231,"unicode":0,"echo":false,"script":null)
 ]
}
move_right={
"deadzone": 0.5,
"events": [ Object(InputEventKey,"resource_local_to_scene":false,"resource_name":"","device":0,"alt":false,"shift":false,"control":false,"meta":false,"command":false,"pressed":false,"scancode":68,"unicode":0,"echo":false,"script":null)
, Object(InputEventKey,"resource_local_to_scene":false,"resource_name":"","device":0,"alt":false,"shift":false,"control":false,"meta":false,"command":false,"pressed":false,"scancode":16777233,"unicode":0,"echo":false,"script":null)
 ]
}
move_up={
"deadzone": 0.5,
"events": [ Object(InputEventKey,"resource_local_to_scene":false,"resource_name":"","device":0,"alt":false,"shift":false,"control":false,"meta":false,"command":false,"pressed":false,"scancode":87,"unicode":0,"echo":false,"script":null)
, Object(InputEventKey,"resource_local_to_scene":false,"resource_name":"","device":0,"alt":false,"shift":false,"control":false,"meta":false,"command":false,"pressed":false,"scancode":16777232,"unicode":0,"echo":false,"script":null)
 ]
}
move_down={
"deadzone": 0.5,
"events": [ Object(InputEventKey,"resource_local_to_scene":false,"resource_name":"","device":0,"alt":false,"shift":false,"control":false,"meta":false,"command":false,"pressed":false,"scancode":83,"unicode":0,"echo":false,"script":null)
, Object(InputEventKey,"resource_local_to_scene":false,"resource_name":"","device":0,"alt":false,"shift":false,"control":false,"meta":false,"command":false,"pressed":false,"scancode":16777234,"unicode":0,"echo":false,"script":null)
 ]
}
attack_primary={
"deadzone": 0.5,
"events": [ Object(InputEventMouseButton,"resource_local_to_scene":false,"resource_name":"","device":0,"alt":false,"shift":false,"control":false,"meta":false,"command":false,"button_mask":0,"position":Vector2( 0, 0 ),"global_position":Vector2( 0, 0 ),"factor":1.0,"button_index":1,"pressed":false,"doubleclick":false,"script":null)
 ]
}
attack_secondary={
"deadzone": 0.5,
"events": [ Object(InputEventMouseButton,"resource_local_to_scene":false,"resource_name":"","device":0,"alt":false,"shift":false,"control":false,"meta":false,"command":false,"button_mask":0,"position":Vector2( 0, 0 ),"global_position":Vector2( 0, 0 ),"factor":1.0,"button_index":2,"pressed":false,"doubleclick":false,"script":null)
 ]
}
dev_fullscreen={
"deadzone": 0.5,
"events": [ Object(InputEventKey,"resource_local_to_scene":false,"resource_name":"","device":0,"alt":false,"shift":false,"control":false,"meta":false,"command":false,"pressed":false,"scancode":16777254,"unicode":0,"echo":false,"script":null)
 ]
}
dev_exit={
"deadzone": 0.5,
"events": [ Object(InputEventKey,"resource_local_to_scene":false,"resource_name":"","device":0,"alt":false,"shift":false,"control":false,"meta":false,"command":false,"pressed":false,"scancode":16777217,"unicode":0,"echo":false,"script":null)
 ]
}

[rendering]

quality/driver/driver_name="GLES2"
quality/intended_usage/framebuffer_allocation=0
quality/intended_usage/framebuffer_allocation.mobile=0
vram_compression/import_etc=true
vram_compression/import_etc2=false
batching/precision/uv_contract=true
environment/default_clear_color=Color( 0, 0, 0, 1 )
environment/default_environment="res://default_env.tres"
quality/dynamic_fonts/use_oversampling=false
