[gd_scene load_steps=5 format=2]

[ext_resource path="res://src/explosions/explosion.gd" type="Script" id=1]
[ext_resource path="res://assets/bolt_hit_B.png" type="Texture" id=2]
[ext_resource path="res://assets/bolt_hit_A.png" type="Texture" id=3]

[sub_resource type="Animation" id=1]
resource_name = "boom"
length = 0.7
tracks/0/type = "value"
tracks/0/path = NodePath(".:frame")
tracks/0/interp = 1
tracks/0/loop_wrap = false
tracks/0/imported = false
tracks/0/enabled = true
tracks/0/keys = {
"times": PoolRealArray( 0, 0.6, 0.7 ),
"transitions": PoolRealArray( 1, 1, 1 ),
"update": 0,
"values": [ 0, 6, 6 ]
}

[node name="Explosion" type="Sprite"]
z_index = 75
z_as_relative = false
texture = ExtResource( 3 )
hframes = 7
frame = 6
script = ExtResource( 1 )
skins = [ ExtResource( 3 ), ExtResource( 2 ) ]

[node name="AnimationPlayer" type="AnimationPlayer" parent="."]
autoplay = "boom"
anims/boom = SubResource( 1 )
