[gd_scene load_steps=7 format=2]

[ext_resource path="res://assets/player_bomb.png" type="Texture" id=1]
[ext_resource path="res://src/player/player_bomb.gd" type="Script" id=2]
[ext_resource path="res://src/player/explosion_area.gd" type="Script" id=3]

[sub_resource type="CircleShape2D" id=1]
radius = 12.0

[sub_resource type="CircleShape2D" id=2]
radius = 80.0

[sub_resource type="Animation" id=3]
resource_name = "fizz"
length = 1.8
tracks/0/type = "value"
tracks/0/path = NodePath("Sprite:frame")
tracks/0/interp = 1
tracks/0/loop_wrap = false
tracks/0/imported = false
tracks/0/enabled = true
tracks/0/keys = {
"times": PoolRealArray( 0, 0.7, 1.8 ),
"transitions": PoolRealArray( 1, 1, 1 ),
"update": 0,
"values": [ 0, 7, 7 ]
}

[node name="Bomb" type="Area2D"]
collision_layer = 2
collision_mask = 2
script = ExtResource( 2 )

[node name="Sprite" type="Sprite" parent="."]
position = Vector2( 0, -5 )
texture = ExtResource( 1 )
hframes = 8
frame = 7

[node name="CollisionShape2D" type="CollisionShape2D" parent="."]
shape = SubResource( 1 )

[node name="Explosion" type="Area2D" parent="."]
collision_layer = 0
collision_mask = 0
script = ExtResource( 3 )

[node name="CollisionShape2D" type="CollisionShape2D" parent="Explosion"]
shape = SubResource( 2 )

[node name="AnimationPlayer" type="AnimationPlayer" parent="."]
autoplay = "fizz"
anims/fizz = SubResource( 3 )
